Mini-Project #02 – STA 9750 2024 Submission Material
…
# Group by genre -> count # of successful titles in each genre 
succ_gen_titles <- succ_title |>
  group_by(genres) |>
  summarize(succ_title = n(), 
            .groups = "drop")

# Merge and print
gen_success_rate <- succ_gen_titles |>
  left_join(tot_gen_titles, by = "genres") |>
  mutate(success_rate = (succ_title / total_titles) * 100) |>
  arrange(desc(success_rate))
print(gen_success_rate)

# A tibble: 23 × 4
   genres    succ_title total_titles success_rate
   <chr>          <int>        <int>        <dbl>
 1 Film-Noir          9          818        1.10 
 2 War               53         5392        0.983
 3 Biography         89         9859        0.903
 4 History           38        11620        0.327
 5 Thriller          90        27850        0.323
 6 Sport             20         6207        0.322
 7 Drama            552       176290        0.313
 8 Music             26         9036        0.288
 9 Crime            162        60358        0.268
10 Musical           10         3873        0.258
# ℹ 13 more rows
…
# Filter for success
success_2014 <- combo_2014 |>
  filter(success == TRUE,
         titleType == "movie")

# Group by genre, get the # of successful titles in each
succ_title_2014 <- success_2014 |>
  group_by(genres) |>
  summarize(success_titles = n(), .groups = "drop") |>
  arrange(desc(success_titles))
print(succ_title_2014)

# A tibble: 21 × 2
   genres      success_titles
   <chr>                <int>
 1 Drama                  138
 2 Action                  61
 3 Crime                   43
 4 Biography               33
 5 Adventure               32
 6 Documentary             32
 7 Comedy                  29
 8 Thriller                25
 9 History                 19
10 Animation               18
# ℹ 11 more rows
…
